%YAML 1.1
%TAG !u! tag:unity3d.com,2011:
--- !u!1045 &1
EditorBuildSettings:
  m_ObjectHideFlags: 0
  serializedVersion: 2
  m_Scenes:
  - enabled: 1
    path: Assets/Scenes/MainMenu.unity
    guid: 9298f03fb09523b40829c09b5cd2af5f
  - enabled: 1
    path: Assets/Scenes/LoadingScene.unity
    guid: 6c627497cd46bc44b8cb2eeca3d18794
  - enabled: 1
    path: Assets/Scenes/Platformer.unity
    guid: e71a48299f5c2cb4a8f780bfb715e3b9
  m_configObjects: {}
