%YAML 1.1
%TAG !u! tag:unity3d.com,2011:
--- !u!74 &7400000
AnimationClip:
  m_ObjectHideFlags: 0
  m_CorrespondingSourceObject: {fileID: 0}
  m_PrefabInstance: {fileID: 0}
  m_PrefabAsset: {fileID: 0}
  m_Name: BoxCoins2-1health
  serializedVersion: 6
  m_Legacy: 0
  m_Compressed: 0
  m_UseHighQualityCurve: 1
  m_RotationCurves: []
  m_CompressedRotationCurves: []
  m_EulerCurves: []
  m_PositionCurves: []
  m_ScaleCurves: []
  m_FloatCurves: []
  m_PPtrCurves:
  - curve:
    - time: 0
      value: {fileID: 21300000, guid: 3d265821265a548479f7bffe6447be10, type: 3}
    - time: 0.016666668
      value: {fileID: 21300000, guid: a6e92a841d3d1b44bb098d81b720f3ca, type: 3}
    - time: 0.033333335
      value: {fileID: 21300000, guid: 6bd0598948a06414db224599f9a7c4f6, type: 3}
    - time: 0.05
      value: {fileID: 21300000, guid: 99ca4cb55368c1942a87cb5b1deb1543, type: 3}
    - time: 0.06666667
      value: {fileID: 21300000, guid: dfd3773a9655a0c43bc7b938ac1051a7, type: 3}
    - time: 0.083333336
      value: {fileID: 21300000, guid: 117f52d0c215cef4a86dabb1f6da75c1, type: 3}
    - time: 0.1
      value: {fileID: 21300000, guid: e9ea689a450122a43b4e264a67866a5f, type: 3}
    - time: 0.11666667
      value: {fileID: 21300000, guid: d4aa4052cb1c3df42b89d64b26e69e7d, type: 3}
    - time: 0.13333334
      value: {fileID: 21300000, guid: 396c3b488036d74469dd585ded10d747, type: 3}
    - time: 0.15
      value: {fileID: 21300000, guid: 1346677862b292749a4e92d052617220, type: 3}
    - time: 0.16666667
      value: {fileID: 21300000, guid: c5d5f5afe666c9c4ca092d1909a23f9e, type: 3}
    - time: 0.18333334
      value: {fileID: 21300000, guid: 4552bce691bdbf946810f7754b536412, type: 3}
    - time: 0.2
      value: {fileID: 21300000, guid: e3c31f938370fb748997e5de232bdd0d, type: 3}
    - time: 0.21666667
      value: {fileID: 21300000, guid: d61919dfefb2d5843a342c6202b8ef72, type: 3}
    - time: 0.23333333
      value: {fileID: 21300000, guid: db7a45250ef86584cb940a3a6bb1e13d, type: 3}
    - time: 0.25
      value: {fileID: 21300000, guid: 62db9c32bf4e353479137614d0a9ba25, type: 3}
    - time: 0.26666668
      value: {fileID: 21300000, guid: 5333ad91ebe317c4bad8e379eeb27374, type: 3}
    - time: 0.28333333
      value: {fileID: 21300000, guid: d9ce859a83ddddd43b68e3b8d084fed7, type: 3}
    - time: 0.3
      value: {fileID: 21300000, guid: f1edb38e0a4fc304eadefd9f35cd4967, type: 3}
    - time: 0.31666666
      value: {fileID: 21300000, guid: 9d29a942b2b7d504d8f079a5b3827259, type: 3}
    - time: 0.33333334
      value: {fileID: 21300000, guid: fc8933cdbaa0e334cb75106985fd2fd2, type: 3}
    attribute: m_Sprite
    path: 
    classID: 212
    script: {fileID: 0}
  m_SampleRate: 60
  m_WrapMode: 0
  m_Bounds:
    m_Center: {x: 0, y: 0, z: 0}
    m_Extent: {x: 0, y: 0, z: 0}
  m_ClipBindingConstant:
    genericBindings:
    - serializedVersion: 2
      path: 0
      attribute: 0
      script: {fileID: 0}
      typeID: 212
      customType: 23
      isPPtrCurve: 1
    pptrCurveMapping:
    - {fileID: 21300000, guid: 3d265821265a548479f7bffe6447be10, type: 3}
    - {fileID: 21300000, guid: a6e92a841d3d1b44bb098d81b720f3ca, type: 3}
    - {fileID: 21300000, guid: 6bd0598948a06414db224599f9a7c4f6, type: 3}
    - {fileID: 21300000, guid: 99ca4cb55368c1942a87cb5b1deb1543, type: 3}
    - {fileID: 21300000, guid: dfd3773a9655a0c43bc7b938ac1051a7, type: 3}
    - {fileID: 21300000, guid: 117f52d0c215cef4a86dabb1f6da75c1, type: 3}
    - {fileID: 21300000, guid: e9ea689a450122a43b4e264a67866a5f, type: 3}
    - {fileID: 21300000, guid: d4aa4052cb1c3df42b89d64b26e69e7d, type: 3}
    - {fileID: 21300000, guid: 396c3b488036d74469dd585ded10d747, type: 3}
    - {fileID: 21300000, guid: 1346677862b292749a4e92d052617220, type: 3}
    - {fileID: 21300000, guid: c5d5f5afe666c9c4ca092d1909a23f9e, type: 3}
    - {fileID: 21300000, guid: 4552bce691bdbf946810f7754b536412, type: 3}
    - {fileID: 21300000, guid: e3c31f938370fb748997e5de232bdd0d, type: 3}
    - {fileID: 21300000, guid: d61919dfefb2d5843a342c6202b8ef72, type: 3}
    - {fileID: 21300000, guid: db7a45250ef86584cb940a3a6bb1e13d, type: 3}
    - {fileID: 21300000, guid: 62db9c32bf4e353479137614d0a9ba25, type: 3}
    - {fileID: 21300000, guid: 5333ad91ebe317c4bad8e379eeb27374, type: 3}
    - {fileID: 21300000, guid: d9ce859a83ddddd43b68e3b8d084fed7, type: 3}
    - {fileID: 21300000, guid: f1edb38e0a4fc304eadefd9f35cd4967, type: 3}
    - {fileID: 21300000, guid: 9d29a942b2b7d504d8f079a5b3827259, type: 3}
    - {fileID: 21300000, guid: fc8933cdbaa0e334cb75106985fd2fd2, type: 3}
  m_AnimationClipSettings:
    serializedVersion: 2
    m_AdditiveReferencePoseClip: {fileID: 0}
    m_AdditiveReferencePoseTime: 0
    m_StartTime: 0
    m_StopTime: 0.35000002
    m_OrientationOffsetY: 0
    m_Level: 0
    m_CycleOffset: 0
    m_HasAdditiveReferencePose: 0
    m_LoopTime: 1
    m_LoopBlend: 0
    m_LoopBlendOrientation: 0
    m_LoopBlendPositionY: 0
    m_LoopBlendPositionXZ: 0
    m_KeepOriginalOrientation: 0
    m_KeepOriginalPositionY: 1
    m_KeepOriginalPositionXZ: 0
    m_HeightFromFeet: 0
    m_Mirror: 0
  m_EditorCurves: []
  m_EulerEditorCurves: []
  m_HasGenericRootTransform: 0
  m_HasMotionFloatCurves: 0
  m_Events: []
