%YAML 1.1
%TAG !u! tag:unity3d.com,2011:
--- !u!74 &7400000
AnimationClip:
  m_ObjectHideFlags: 0
  m_CorrespondingSourceObject: {fileID: 0}
  m_PrefabInstance: {fileID: 0}
  m_PrefabAsset: {fileID: 0}
  m_Name: PlayerKnightJump
  serializedVersion: 6
  m_Legacy: 0
  m_Compressed: 0
  m_UseHighQualityCurve: 1
  m_RotationCurves: []
  m_CompressedRotationCurves: []
  m_EulerCurves: []
  m_PositionCurves: []
  m_ScaleCurves: []
  m_FloatCurves: []
  m_PPtrCurves:
  - curve:
    - time: 0
      value: {fileID: 21300000, guid: e1fdc6adedee4cf4ab1fe6c7a490c213, type: 3}
    - time: 0.016666668
      value: {fileID: 21300000, guid: 270c4024f9ac2bf429d57e5da2550d76, type: 3}
    - time: 0.033333335
      value: {fileID: 21300000, guid: 399dbbb8da861654da1b5d731eb9996b, type: 3}
    - time: 0.05
      value: {fileID: 21300000, guid: f72c4109821e2824da56590e18ce5bc6, type: 3}
    - time: 0.06666667
      value: {fileID: 21300000, guid: 68faf1f69d4ec124eb288e664d803b18, type: 3}
    - time: 0.083333336
      value: {fileID: 21300000, guid: a12543e355d5a5a41b913c538e750315, type: 3}
    attribute: m_Sprite
    path: 
    classID: 212
    script: {fileID: 0}
  m_SampleRate: 60
  m_WrapMode: 0
  m_Bounds:
    m_Center: {x: 0, y: 0, z: 0}
    m_Extent: {x: 0, y: 0, z: 0}
  m_ClipBindingConstant:
    genericBindings:
    - serializedVersion: 2
      path: 0
      attribute: 0
      script: {fileID: 0}
      typeID: 212
      customType: 23
      isPPtrCurve: 1
    pptrCurveMapping:
    - {fileID: 21300000, guid: e1fdc6adedee4cf4ab1fe6c7a490c213, type: 3}
    - {fileID: 21300000, guid: 270c4024f9ac2bf429d57e5da2550d76, type: 3}
    - {fileID: 21300000, guid: 399dbbb8da861654da1b5d731eb9996b, type: 3}
    - {fileID: 21300000, guid: f72c4109821e2824da56590e18ce5bc6, type: 3}
    - {fileID: 21300000, guid: 68faf1f69d4ec124eb288e664d803b18, type: 3}
    - {fileID: 21300000, guid: a12543e355d5a5a41b913c538e750315, type: 3}
  m_AnimationClipSettings:
    serializedVersion: 2
    m_AdditiveReferencePoseClip: {fileID: 0}
    m_AdditiveReferencePoseTime: 0
    m_StartTime: 0
    m_StopTime: 0.1
    m_OrientationOffsetY: 0
    m_Level: 0
    m_CycleOffset: 0
    m_HasAdditiveReferencePose: 0
    m_LoopTime: 1
    m_LoopBlend: 0
    m_LoopBlendOrientation: 0
    m_LoopBlendPositionY: 0
    m_LoopBlendPositionXZ: 0
    m_KeepOriginalOrientation: 0
    m_KeepOriginalPositionY: 1
    m_KeepOriginalPositionXZ: 0
    m_HeightFromFeet: 0
    m_Mirror: 0
  m_EditorCurves: []
  m_EulerEditorCurves: []
  m_HasGenericRootTransform: 0
  m_HasMotionFloatCurves: 0
  m_Events: []
