%YAML 1.1
%TAG !u! tag:unity3d.com,2011:
--- !u!74 &7400000
AnimationClip:
  m_ObjectHideFlags: 0
  m_CorrespondingSourceObject: {fileID: 0}
  m_PrefabInstance: {fileID: 0}
  m_PrefabAsset: {fileID: 0}
  m_Name: PlayerKnightMove
  serializedVersion: 6
  m_Legacy: 0
  m_Compressed: 0
  m_UseHighQualityCurve: 1
  m_RotationCurves: []
  m_CompressedRotationCurves: []
  m_EulerCurves: []
  m_PositionCurves: []
  m_ScaleCurves: []
  m_FloatCurves: []
  m_PPtrCurves:
  - curve:
    - time: 0
      value: {fileID: 21300000, guid: b5f0bf80555c99840be935e08972a56e, type: 3}
    - time: 0.033333335
      value: {fileID: 21300000, guid: 03c13a495897908498b9111c0fb656de, type: 3}
    - time: 0.083333336
      value: {fileID: 21300000, guid: eb1f47d7fb26e3244962d94d2dc58df7, type: 3}
    - time: 0.11666667
      value: {fileID: 21300000, guid: 2a0745886fe8045458c6c6949c7dcdce, type: 3}
    - time: 0.15
      value: {fileID: 21300000, guid: c8f9ca33a883a7f49be5e3c37490fa52, type: 3}
    - time: 0.2
      value: {fileID: 21300000, guid: 5185ad8c2d9fc924389becde34889d10, type: 3}
    - time: 0.23333333
      value: {fileID: 21300000, guid: 2697b728b6da31d469214e5ef03eeba4, type: 3}
    - time: 0.26666668
      value: {fileID: 21300000, guid: ddf52c918fbb43342a672c712e15f123, type: 3}
    - time: 0.31666666
      value: {fileID: 21300000, guid: 501e794f448ced44c880e85356af298d, type: 3}
    - time: 0.35
      value: {fileID: 21300000, guid: 808f9bb3697428e4bac70bc07056183f, type: 3}
    - time: 0.38333333
      value: {fileID: 21300000, guid: bab544f0015d2f0448799bf931919384, type: 3}
    - time: 0.43333334
      value: {fileID: 21300000, guid: cc32d83fb16f1374c9179dbf43a71f07, type: 3}
    - time: 0.46666667
      value: {fileID: 21300000, guid: 72d6642b472cc4243aa18e612b829053, type: 3}
    - time: 0.51666665
      value: {fileID: 21300000, guid: 8bdf039f8ce42d1459560086184c2048, type: 3}
    - time: 0.55
      value: {fileID: 21300000, guid: bb3d475ddb6544f4f8da6719363af766, type: 3}
    - time: 0.5833333
      value: {fileID: 21300000, guid: 9306cc5b5d3c6cc4997b7d481c09e953, type: 3}
    - time: 0.6333333
      value: {fileID: 21300000, guid: d963bb7314be55641a3ade6116a42e95, type: 3}
    - time: 0.6666667
      value: {fileID: 21300000, guid: 03d05e9189f98084eb09dc1d19acd199, type: 3}
    - time: 0.7
      value: {fileID: 21300000, guid: 271212e3e25c5e24eb9429ed22df25ff, type: 3}
    - time: 0.75
      value: {fileID: 21300000, guid: 1c71bd682f3c3dc42b7c7fd029fc5221, type: 3}
    - time: 0.78333336
      value: {fileID: 21300000, guid: 11d4e0d24c5df194789b34761e30f6ea, type: 3}
    - time: 0.81666666
      value: {fileID: 21300000, guid: c8cf90aff0de5394fb0dda3d9f619062, type: 3}
    - time: 0.8666667
      value: {fileID: 21300000, guid: 07d5e3394ab66c842ad1616ec71f38c2, type: 3}
    - time: 0.9
      value: {fileID: 21300000, guid: 8714355fad702054fbdc058c4df75cc3, type: 3}
    attribute: m_Sprite
    path: 
    classID: 212
    script: {fileID: 0}
  m_SampleRate: 60
  m_WrapMode: 0
  m_Bounds:
    m_Center: {x: 0, y: 0, z: 0}
    m_Extent: {x: 0, y: 0, z: 0}
  m_ClipBindingConstant:
    genericBindings:
    - serializedVersion: 2
      path: 0
      attribute: 0
      script: {fileID: 0}
      typeID: 212
      customType: 23
      isPPtrCurve: 1
    pptrCurveMapping:
    - {fileID: 21300000, guid: b5f0bf80555c99840be935e08972a56e, type: 3}
    - {fileID: 21300000, guid: 03c13a495897908498b9111c0fb656de, type: 3}
    - {fileID: 21300000, guid: eb1f47d7fb26e3244962d94d2dc58df7, type: 3}
    - {fileID: 21300000, guid: 2a0745886fe8045458c6c6949c7dcdce, type: 3}
    - {fileID: 21300000, guid: c8f9ca33a883a7f49be5e3c37490fa52, type: 3}
    - {fileID: 21300000, guid: 5185ad8c2d9fc924389becde34889d10, type: 3}
    - {fileID: 21300000, guid: 2697b728b6da31d469214e5ef03eeba4, type: 3}
    - {fileID: 21300000, guid: ddf52c918fbb43342a672c712e15f123, type: 3}
    - {fileID: 21300000, guid: 501e794f448ced44c880e85356af298d, type: 3}
    - {fileID: 21300000, guid: 808f9bb3697428e4bac70bc07056183f, type: 3}
    - {fileID: 21300000, guid: bab544f0015d2f0448799bf931919384, type: 3}
    - {fileID: 21300000, guid: cc32d83fb16f1374c9179dbf43a71f07, type: 3}
    - {fileID: 21300000, guid: 72d6642b472cc4243aa18e612b829053, type: 3}
    - {fileID: 21300000, guid: 8bdf039f8ce42d1459560086184c2048, type: 3}
    - {fileID: 21300000, guid: bb3d475ddb6544f4f8da6719363af766, type: 3}
    - {fileID: 21300000, guid: 9306cc5b5d3c6cc4997b7d481c09e953, type: 3}
    - {fileID: 21300000, guid: d963bb7314be55641a3ade6116a42e95, type: 3}
    - {fileID: 21300000, guid: 03d05e9189f98084eb09dc1d19acd199, type: 3}
    - {fileID: 21300000, guid: 271212e3e25c5e24eb9429ed22df25ff, type: 3}
    - {fileID: 21300000, guid: 1c71bd682f3c3dc42b7c7fd029fc5221, type: 3}
    - {fileID: 21300000, guid: 11d4e0d24c5df194789b34761e30f6ea, type: 3}
    - {fileID: 21300000, guid: c8cf90aff0de5394fb0dda3d9f619062, type: 3}
    - {fileID: 21300000, guid: 07d5e3394ab66c842ad1616ec71f38c2, type: 3}
    - {fileID: 21300000, guid: 8714355fad702054fbdc058c4df75cc3, type: 3}
  m_AnimationClipSettings:
    serializedVersion: 2
    m_AdditiveReferencePoseClip: {fileID: 0}
    m_AdditiveReferencePoseTime: 0
    m_StartTime: 0
    m_StopTime: 0.9166666
    m_OrientationOffsetY: 0
    m_Level: 0
    m_CycleOffset: 0
    m_HasAdditiveReferencePose: 0
    m_LoopTime: 1
    m_LoopBlend: 0
    m_LoopBlendOrientation: 0
    m_LoopBlendPositionY: 0
    m_LoopBlendPositionXZ: 0
    m_KeepOriginalOrientation: 0
    m_KeepOriginalPositionY: 1
    m_KeepOriginalPositionXZ: 0
    m_HeightFromFeet: 0
    m_Mirror: 0
  m_EditorCurves: []
  m_EulerEditorCurves: []
  m_HasGenericRootTransform: 0
  m_HasMotionFloatCurves: 0
  m_Events: []
