%YAML 1.1
%TAG !u! tag:unity3d.com,2011:
--- !u!74 &7400000
AnimationClip:
  m_ObjectHideFlags: 0
  m_CorrespondingSourceObject: {fileID: 0}
  m_PrefabInstance: {fileID: 0}
  m_PrefabAsset: {fileID: 0}
  m_Name: SkeletonJump
  serializedVersion: 6
  m_Legacy: 0
  m_Compressed: 0
  m_UseHighQualityCurve: 1
  m_RotationCurves: []
  m_CompressedRotationCurves: []
  m_EulerCurves: []
  m_PositionCurves: []
  m_ScaleCurves: []
  m_FloatCurves: []
  m_PPtrCurves:
  - curve:
    - time: 0
      value: {fileID: 21300000, guid: 3ceb25d107101fc4f9a0145a748a108a, type: 3}
    - time: 0.05
      value: {fileID: 21300000, guid: 990503cd30829ef4284bab1cdb533361, type: 3}
    - time: 0.11666667
      value: {fileID: 21300000, guid: a7fc59f2d9ea79d43b5b4231a201d5d4, type: 3}
    - time: 0.16666667
      value: {fileID: 21300000, guid: 4c19fb47d75a9e346aa829874476f0e7, type: 3}
    - time: 0.23333333
      value: {fileID: 21300000, guid: a2f21ffe90e9c664f9e968236189963d, type: 3}
    - time: 0.28333333
      value: {fileID: 21300000, guid: 8df13ea8d2735fd40a817660fe13e3d4, type: 3}
    attribute: m_Sprite
    path: 
    classID: 212
    script: {fileID: 0}
  m_SampleRate: 60
  m_WrapMode: 0
  m_Bounds:
    m_Center: {x: 0, y: 0, z: 0}
    m_Extent: {x: 0, y: 0, z: 0}
  m_ClipBindingConstant:
    genericBindings:
    - serializedVersion: 2
      path: 0
      attribute: 0
      script: {fileID: 0}
      typeID: 212
      customType: 23
      isPPtrCurve: 1
    pptrCurveMapping:
    - {fileID: 21300000, guid: 3ceb25d107101fc4f9a0145a748a108a, type: 3}
    - {fileID: 21300000, guid: 990503cd30829ef4284bab1cdb533361, type: 3}
    - {fileID: 21300000, guid: a7fc59f2d9ea79d43b5b4231a201d5d4, type: 3}
    - {fileID: 21300000, guid: 4c19fb47d75a9e346aa829874476f0e7, type: 3}
    - {fileID: 21300000, guid: a2f21ffe90e9c664f9e968236189963d, type: 3}
    - {fileID: 21300000, guid: 8df13ea8d2735fd40a817660fe13e3d4, type: 3}
  m_AnimationClipSettings:
    serializedVersion: 2
    m_AdditiveReferencePoseClip: {fileID: 0}
    m_AdditiveReferencePoseTime: 0
    m_StartTime: 0
    m_StopTime: 0.3
    m_OrientationOffsetY: 0
    m_Level: 0
    m_CycleOffset: 0
    m_HasAdditiveReferencePose: 0
    m_LoopTime: 1
    m_LoopBlend: 0
    m_LoopBlendOrientation: 0
    m_LoopBlendPositionY: 0
    m_LoopBlendPositionXZ: 0
    m_KeepOriginalOrientation: 0
    m_KeepOriginalPositionY: 1
    m_KeepOriginalPositionXZ: 0
    m_HeightFromFeet: 0
    m_Mirror: 0
  m_EditorCurves: []
  m_EulerEditorCurves: []
  m_HasGenericRootTransform: 0
  m_HasMotionFloatCurves: 0
  m_Events: []
